Getting Started with R
…
---

## `faketucky`

If you type the name of your data frame (i.e. `faketucky`), R will output the following: 

```r
faketucky
```

--

```
## # A tibble: 57,855 x 9
##    student_id first_high_scho… school_district gender race_ethnicity
##         <dbl> <chr>            <chr>           <chr>  <chr>         
##  1       1622 Jackson          Jackson         Male   Multiple/Nati…
##  2       1877 Jackson          Jackson         Male   White         
##  3       1941 Jackson          Jackson         Male   White         
##  4       3442 Jackson          Jackson         Female White         
##  5       4623 Jackson          Jackson         Male   White         
##  6       4913 Jackson          Jackson         Male   White         
##  7       5754 Jackson          Jackson         Male   White         
##  8       6293 Jackson          Jackson         Female White         
##  9       7010 Jackson          Jackson         Male   White         
## 10       8343 Jackson          Jackson         Male   White         
## # … with 57,845 more rows, and 4 more variables: percent_absent <dbl>,
## #   gpa <dbl>, act_reading_score <dbl>, act_math_score <dbl>
```
…
